Introduction to the {ggsurvfit} R Package – example-data
…
── Attaching core tidyverse packages ──────────────────────── tidyverse 2.0.0 ──
✔ dplyr     1.1.2     ✔ readr     2.1.4
✔ forcats   1.0.0     ✔ stringr   1.5.0
✔ lubridate 1.9.2     ✔ tibble    3.2.1
✔ purrr     1.0.1     ✔ tidyr     1.3.0

── Conflicts ────────────────────────────────────────── tidyverse_conflicts() ──
✖ dplyr::filter() masks stats::filter()
✖ dplyr::lag()    masks stats::lag()
ℹ Use the conflicted package (<http://conflicted.r-lib.org/>) to force all conflicts to become errors

df_colon <- df_colon |> select(time, status, surg)
df_colon

# A tibble: 929 × 3
    time status surg                       
   <dbl>  <dbl> <fct>                      
 1 2.65       1 Limited Time Since Surgery 
 2 8.45       0 Limited Time Since Surgery 
 3 1.48       1 Limited Time Since Surgery 
 4 0.671      1 Extended Time Since Surgery
 5 1.43       1 Extended Time Since Surgery
 6 2.48       1 Limited Time Since Surgery 
 7 0.627      1 Extended Time Since Surgery
 8 8.74       0 Limited Time Since Surgery 
 9 8.69       0 Limited Time Since Surgery 
10 9.06       0 Extended Time Since Surgery
# ℹ 919 more rows
…
